<?xml version="1.0" encoding="UTF-8" standalone="no"?>
<!-- Created with Inkscape (http://www.inkscape.org/) -->

<svg
   xmlns:dc="http://purl.org/dc/elements/1.1/"
   xmlns:cc="http://creativecommons.org/ns#"
   xmlns:rdf="http://www.w3.org/1999/02/22-rdf-syntax-ns#"
   xmlns:svg="http://www.w3.org/2000/svg"
   xmlns="http://www.w3.org/2000/svg"
   xmlns:sodipodi="http://sodipodi.sourceforge.net/DTD/sodipodi-0.dtd"
   xmlns:inkscape="http://www.inkscape.org/namespaces/inkscape"
   id="svg2"
   version="1.1"
   inkscape:version="0.91 r13725"
   width="580"
   height="620"
   viewBox="0 0 580 620"
   sodipodi:docname="advantages_bg.svg">
  <metadata
     id="metadata8">
    <rdf:RDF>
      <cc:Work
         rdf:about="">
        <dc:format>image/svg+xml</dc:format>
        <dc:type
           rdf:resource="http://purl.org/dc/dcmitype/StillImage" />
        <dc:title></dc:title>
      </cc:Work>
    </rdf:RDF>
  </metadata>
  <defs
     id="defs6" />
  <sodipodi:namedview
     pagecolor="#ffffff"
     bordercolor="#666666"
     borderopacity="1"
     objecttolerance="10"
     gridtolerance="10"
     guidetolerance="10"
     inkscape:pageopacity="0"
     inkscape:pageshadow="2"
     inkscape:window-width="1600"
     inkscape:window-height="837"
     id="namedview4"
     showgrid="false"
     inkscape:zoom="2.8934353"
     inkscape:cx="435.08832"
     inkscape:cy="433.09334"
     inkscape:window-x="-8"
     inkscape:window-y="-8"
     inkscape:window-maximized="1"
     inkscape:current-layer="svg2" />
  <path
     style="fill:#f1f1f1"
     d="M 144.7642,536.19715 0.02839989,453.52247 l 0.001,-144.5 10e-4,-144.5 L 145.01436,81.794507 289.99832,-0.93344442 434.98453,81.794507 l 144.98621,82.727963 5e-4,144.5 5.1e-4,144.5 -144.56176,82.5 c -79.50896,45.375 -144.86529,82.57861 -145.23627,82.67468 -0.37099,0.0961 -65.80563,-37.02893 -145.41032,-82.5 z M 410.58419,492.81978 530,424.61708 530,309.01964 530,193.4222 410.57195,125.22234 C 344.88653,87.712407 290.63437,57.022467 290.0116,57.022467 c -0.62277,0 -54.88015,30.68883 -120.57195,68.197413 L 50,193.41728 l 0,115.59965 0,115.59964 119.25,68.16246 c 65.5875,37.48936 119.85039,68.18068 120.58419,68.20295 0.73381,0.0223 55.07131,-30.65072 120.75,-68.1622 z"
     id="path3340"
     inkscape:connector-curvature="0" />
</svg>
